{
    "data": [
        {
            "id": 456,
            "vacationTypeName": "Sick Leave",
            "vacationYearQuota": 4
        },
        {
            "id": 234,
            "vacationTypeName": "Unpaid Leave",
            "vacationYearQuota": 3
        },
        {
            "id": 628,
            "vacationTypeName": "Vacation",
            "vacationYearQuota": 5
        }
    ]
}