{
    "data": {
        "currentPage": 1,
        "totalItems": 20,
        "totalPages": 10,
        "vacationRequestDto": [
            {
                "userId": 22,
                "startDate": "22/06/2023",
                "endDate": "24/06/2023",
                "status": "WAITING",
                "requestDateCreation": "21/06/2023",
                "morningStartDate": true,
                "morningEndDate": false,
                "nbOfDays": 2.5,
                "comment": "i'm having a vacation with family",
                "username": "Marwen AYOUB",
                "entityId": 22,
                "approver": "Aymen HOSNI"
            },
            {
                "userId": 432,
                "startDate": "02/07/2023",
                "endDate": "06/07/2023",
                "status": "INITIALIZED",
                "requestDateCreation": "01/07/2023",
                "morningStartDate": true,
                "morningEndDate": false,
                "nbOfDays": 4,
                "comment": "i'm sick for the moment",
                "username": "Marwen AYOUB",
                "entityId": 22,
                "approver": "Aymen HOSNI"
            },
            {
                "userId": 432,
                "startDate": "02/07/2023",
                "endDate": "06/07/2023",
                "status": "INITIALIZED",
                "requestDateCreation": "01/07/2023",
                "morningStartDate": true,
                "morningEndDate": false,
                "nbOfDays": 4,
                "comment": "i'm sick for the moment",
                "username": "Marwen AYOUB",
                "entityId": 22,
                "approver": "Aymen HOSNI"
            },
            {
                "userId": 432,
                "startDate": "02/07/2023",
                "endDate": "06/07/2023",
                "status": "INITIALIZED",
                "requestDateCreation": "01/07/2023",
                "morningStartDate": true,
                "morningEndDate": false,
                "nbOfDays": 4,
                "comment": "i'm sick for the moment",
                "username": "Marwen AYOUB",
                "entityId": 22,
                "approver": "Aymen HOSNI"
            },
            {
                "userId": 432,
                "startDate": "02/07/2023",
                "endDate": "06/07/2023",
                "status": "INITIALIZED",
                "requestDateCreation": "01/07/2023",
                "morningStartDate": true,
                "morningEndDate": false,
                "nbOfDays": 4,
                "comment": "i'm sick for the moment",
                "username": "Marwen AYOUB",
                "entityId": 22,
                "approver": "Aymen HOSNI"
            },
            {
                "userId": 432,
                "startDate": "02/07/2023",
                "endDate": "06/07/2023",
                "status": "INITIALIZED",
                "requestDateCreation": "01/07/2023",
                "morningStartDate": true,
                "morningEndDate": false,
                "nbOfDays": 4,
                "comment": "i'm sick for the moment",
                "username": "Marwen AYOUB",
                "entityId": 22,
                "approver": "Aymen HOSNI"
            },
            {
                "userId": 432,
                "startDate": "02/07/2023",
                "endDate": "06/07/2023",
                "status": "INITIALIZED",
                "requestDateCreation": "01/07/2023",
                "morningStartDate": true,
                "morningEndDate": false,
                "nbOfDays": 4,
                "comment": "i'm sick for the moment",
                "username": "Marwen AYOUB",
                "entityId": 22,
                "approver": "Aymen HOSNI"
            },
            {
                "userId": 432,
                "startDate": "02/07/2023",
                "endDate": "06/07/2023",
                "status": "REFUSED",
                "requestDateCreation": "01/07/2023",
                "morningStartDate": true,
                "morningEndDate": false,
                "nbOfDays": 4,
                "comment": "i'm sick for the moment ",
                "username": "Marwen AYOUB",
                "entityId": 22,
                "approver": "Aymen HOSNI"
            }
        ]
    }
}