{
    "data": [
        {
            "id": 1,
            "nbOfDays": 3,
            "startDate": "01/05/2023",
            "endDate": "03/05/2023",
            "vacationType": "Sick Leave",
            "status": "APPROVED"
        },
        {
            "id": 2,
            "nbOfDays": 5,
            "startDate": "25/06/2023",
            "endDate": "27/06/2023",
            "vacationType": "Vacation",
            "status": "PENDING"
        },
        {
            "id": 3,
            "nbOfDays": 6,
            "startDate": "01/05/2023",
            "endDate": "03/05/2023",
            "vacationType": "Sick Leave",
            "status": "APPROVED"
        }
    ]
}