{
    "data": [
        {
            "id": 17462,
            "timesheetMonth": "2023-03",
            "collaborator": {
                "id": 79362,
                "collaboratorFirstName": "Marwen"
            },
            "monthStatus": "APPROVED"
        },
        {
            "id": 17972,
            "timesheetMonth": "2023-02",
            "collaborator": {
                "id": 79362,
                "collaboratorFirstName": "Marwen"
            },
            "monthStatus": "APPROVED"
        }
    ]
}
